[
  {
    "flightId": 0,
    "baggage": [
      {
        "id": 0,
        "weight": 257,
        "weightUnit": "lb",
        "pieces": 66
      },
      {
        "id": 1,
        "weight": 336,
        "weightUnit": "kg",
        "pieces": 291
      },
      {
        "id": 2,
        "weight": 611,
        "weightUnit": "lb",
        "pieces": 566
      },
      {
        "id": 3,
        "weight": 694,
        "weightUnit": "lb",
        "pieces": 421
      },
      {
        "id": 4,
        "weight": 183,
        "weightUnit": "kg",
        "pieces": 980
      },
      {
        "id": 5,
        "weight": 909,
        "weightUnit": "lb",
        "pieces": 903
      },
      {
        "id": 6,
        "weight": 360,
        "weightUnit": "lb",
        "pieces": 251
      },
      {
        "id": 7,
        "weight": 518,
        "weightUnit": "kg",
        "pieces": 644
      }
    ],
    "cargo": [
      {
        "id": 8,
        "weight": 556,
        "weightUnit": "lb",
        "pieces": 825
      },
      {
        "id": 9,
        "weight": 127,
        "weightUnit": "lb",
        "pieces": 911
      },
      {
        "id": 10,
        "weight": 989,
        "weightUnit": "lb",
        "pieces": 338
      }
    ]
  },
  {
    "flightId": 1,
    "baggage": [
      {
        "id": 11,
        "weight": 571,
        "weightUnit": "kg",
        "pieces": 24
      },
      {
        "id": 12,
        "weight": 841,
        "weightUnit": "kg",
        "pieces": 907
      },
      {
        "id": 13,
        "weight": 466,
        "weightUnit": "lb",
        "pieces": 227
      },
      {
        "id": 14,
        "weight": 838,
        "weightUnit": "lb",
        "pieces": 853
      },
      {
        "id": 15,
        "weight": 370,
        "weightUnit": "kg",
        "pieces": 910
      },
      {
        "id": 16,
        "weight": 778,
        "weightUnit": "lb",
        "pieces": 79
      }
    ],
    "cargo": [
      {
        "id": 17,
        "weight": 849,
        "weightUnit": "lb",
        "pieces": 274
      },
      {
        "id": 18,
        "weight": 568,
        "weightUnit": "kg",
        "pieces": 795
      },
      {
        "id": 19,
        "weight": 153,
        "weightUnit": "kg",
        "pieces": 394
      }
    ]
  },
  {
    "flightId": 2,
    "baggage": [
      {
        "id": 20,
        "weight": 894,
        "weightUnit": "kg",
        "pieces": 708
      },
      {
        "id": 21,
        "weight": 808,
        "weightUnit": "lb",
        "pieces": 401
      },
      {
        "id": 22,
        "weight": 869,
        "weightUnit": "kg",
        "pieces": 118
      }
    ],
    "cargo": [
      {
        "id": 23,
        "weight": 320,
        "weightUnit": "kg",
        "pieces": 934
      },
      {
        "id": 24,
        "weight": 840,
        "weightUnit": "kg",
        "pieces": 594
      },
      {
        "id": 25,
        "weight": 711,
        "weightUnit": "lb",
        "pieces": 612
      },
      {
        "id": 26,
        "weight": 884,
        "weightUnit": "kg",
        "pieces": 106
      },
      {
        "id": 27,
        "weight": 250,
        "weightUnit": "lb",
        "pieces": 997
      }
    ]
  },
  {
    "flightId": 3,
    "baggage": [
      {
        "id": 28,
        "weight": 262,
        "weightUnit": "kg",
        "pieces": 17
      },
      {
        "id": 29,
        "weight": 292,
        "weightUnit": "kg",
        "pieces": 625
      },
      {
        "id": 30,
        "weight": 143,
        "weightUnit": "kg",
        "pieces": 412
      },
      {
        "id": 31,
        "weight": 228,
        "weightUnit": "kg",
        "pieces": 670
      },
      {
        "id": 32,
        "weight": 71,
        "weightUnit": "lb",
        "pieces": 760
      }
    ],
    "cargo": [
      {
        "id": 33,
        "weight": 646,
        "weightUnit": "kg",
        "pieces": 633
      },
      {
        "id": 34,
        "weight": 156,
        "weightUnit": "lb",
        "pieces": 996
      },
      {
        "id": 35,
        "weight": 20,
        "weightUnit": "kg",
        "pieces": 770
      }
    ]
  },
  {
    "flightId": 4,
    "baggage": [
      {
        "id": 36,
        "weight": 53,
        "weightUnit": "kg",
        "pieces": 800
      },
      {
        "id": 37,
        "weight": 205,
        "weightUnit": "kg",
        "pieces": 559
      },
      {
        "id": 38,
        "weight": 320,
        "weightUnit": "kg",
        "pieces": 78
      }
    ],
    "cargo": [
      {
        "id": 39,
        "weight": 867,
        "weightUnit": "kg",
        "pieces": 84
      },
      {
        "id": 40,
        "weight": 843,
        "weightUnit": "lb",
        "pieces": 793
      },
      {
        "id": 41,
        "weight": 861,
        "weightUnit": "lb",
        "pieces": 208
      },
      {
        "id": 42,
        "weight": 843,
        "weightUnit": "lb",
        "pieces": 59
      },
      {
        "id": 43,
        "weight": 658,
        "weightUnit": "kg",
        "pieces": 574
      }
    ]
  }
]